{
	"appId": "com.movesOfficial",
	"appName": "Moves in the Field",
	"bundledWebRuntime": false,
	"npmClient": "npm",
	"webDir": "www",
	"plugins": {
		"SplashScreen": {
			"launchShowDuration": 1000,
			"launchAutoHide": true,
			"backgroundColor": "#ffffffff",
			"androidSplashResourceName": "splash",
			"androidScaleType": "CENTER_CROP",
			"showSpinner": true,
			"androidSpinnerStyle": "large",
			"iosSpinnerStyle": "small",
			"spinnerColor": "#999999",
			"splashFullScreen": true,
			"splashImmersive": true,
			"layoutName": "launch_screen",
			"useDialog": true
		}
	},
	"cordova": {
		"preferences": {
			"webviewbounce": "false",
			"UIWebViewBounce": "false",
			"WKWebViewOnly": "true",
			"ScrollEnabled": "false",
			"BackupWebStorage": "none",
			"android-minSdkVersion": "19",
			"android-targetSdkVersion": "30"
		}
	}
}
